﻿#|^|Label|^|TAG|^|Type|^|Area|^|FinishPause|^|WaveLength|^|PlayersMin|^|PlayersMax|^|tNone|^|tProggress|^|tDetail|^|tDone
100|^|event1|^|VG_C_NH_M_HCMAGE|^|10|^|VG_AX_HC_ARENA01|^|2|^|300|^|3|^|8|^|I might know one… but unfortunately I am very tired now, please come back later.|^|You're unlucky - I've just employed someone - please returned later.|^|Let's see what you've got.
I am able to create a mighty illusion and summon some.. animals.. that you will be fighting.
If at least one of you will survive this, I'll reward you.

What do you think?|^|Impressive! Really!
Here is your rewards!

And now I am going to rest for a while.
101|^||^||^||^||^||^||^||^||^||^||^||^|
102|^||^||^||^||^||^||^||^||^||^||^||^|
103|^||^||^||^||^||^||^||^||^||^||^||^|
104|^||^||^||^||^||^||^||^||^||^||^||^|
105|^||^||^||^||^||^||^||^||^||^||^||^|
