﻿#|^|TeacherLabel|^|TeacherID|^|Recipe_Label|^|Recipe_ID|^|Recipe_Qty|^|Recipe_Spec1|^|Recipe_Spec2|^|Recipe_Spec3|^|Recipe_Spec4|^|Recipe_Spec5
100|^|plant_1|^|100|^|[PocketOfMoney] (x50)|^|187|^|-50|^||^||^||^||^|
101|^|body_1|^|101|^|[PocketOfMoney] (x50)|^|187|^|-50|^||^||^||^||^|
102|^|tree_1|^|102|^|[PocketOfMoney] (x50)|^|187|^|-50|^||^||^||^||^|
103|^|rock_1|^|103|^|[PocketOfMoney] (x50)|^|187|^|-50|^||^||^||^||^|
104|^||^|104|^|[PocketOfMoney] (x50)|^|187|^|-50|^||^||^||^||^|
105|^||^||^||^||^||^||^||^||^||^|
106|^||^||^||^||^||^||^||^||^||^|
